Lab4_CatieKitrinos
…
Answer Part 1: There are now 14 rather than 8 columns where (FIPS, Admin, Recovered, Active, Combined Key, Incidence Rate, and Case fatality are all new). There were 125 countries on the list in 3/13 now there are 187

Part 2: Many countries have multiple entries representing different regions (e.g.counties and states). To get the counts for a country we need to summarise the data. Use group_by() and summarize() to make a data frame (tibble) with total counts for each country.

Answer Part 2:

 country_counts <- report_09_13_2020 %>%
  group_by(Country_Region) %>%
  summarize(cases = sum(Confirmed))

## `summarise()` ungrouping output (override with `.groups` argument)

 country_counts

## # A tibble: 188 x 2
##    Country_Region       cases
##    <chr>                <dbl>
##  1 Afghanistan          38716
##  2 Albania              11353
##  3 Algeria              48254
##  4 Andorra               1344
##  5 Angola                3388
##  6 Antigua and Barbuda     95
##  7 Argentina           555537
##  8 Armenia              45862
##  9 Australia            26692
## 10 Austria              33159
## #  with 178 more rows

Part 3: To get counts for confirmed cases per U.S state use filter() to select US and group_by and summarize as above.

Answer Part 3:

 state_count <- report_09_13_2020 %>%
  filter(Country_Region == "US") %>%
  group_by(Province_State) %>%
  summarize(cases = sum(Confirmed))

## `summarise()` ungrouping output (override with `.groups` argument)

state_count

## # A tibble: 58 x 2
##    Province_State        cases
##    <chr>                 <dbl>
##  1 Alabama              138755
##  2 Alaska                 6268
##  3 Arizona              208512
##  4 Arkansas              70219
##  5 California           761728
##  6 Colorado              61293
##  7 Connecticut           54326
##  8 Delaware              18849
##  9 Diamond Princess         49
## 10 District of Columbia  14592
## #  with 48 more rows

Part 4: It will be difficult to make simple graphs with the data from all countries in the world or even the US states. Use arrange_by() and slice() to get just the top 10 countries for Deaths.

Answer Part 4:

death_counts <- report_09_13_2020 %>%
  group_by(Country_Region) %>%
  summarize(deaths = sum(Deaths)) %>%
  arrange(desc(deaths))

## `summarise()` ungrouping output (override with `.groups` argument)

death_counts

## # A tibble: 188 x 2
##    Country_Region deaths
##    <chr>           <dbl>
##  1 US             194071
##  2 Brazil         131625
##  3 India           78586
##  4 Mexico          70821
##  5 United Kingdom  41717
##  6 Italy           35610
##  7 France          30903
##  8 Peru            30526
##  9 Spain           29747
## 10 Iran            23157
## #  with 178 more rows
…
3/13 State case counts

 state_count2 <- report_03_13_2020 %>%
  filter(Country_Region == "US") %>%
  group_by(Province_State) %>%
  summarize(cases = sum(Confirmed))  %>%
  arrange(desc(cases))

## `summarise()` ungrouping output (override with `.groups` argument)

state_count2

## # A tibble: 53 x 2
##    Province_State   cases
##    <chr>            <dbl>
##  1 Washington         568
##  2 New York           421
##  3 California         282
##  4 Massachusetts      123
##  5 Florida             50
##  6 Colorado            49
##  7 Diamond Princess    46
##  8 Illinois            46
##  9 Texas               43
## 10 Georgia             42
## #  with 43 more rows
…
3/13 state death counts

 state_count4 <- report_03_13_2020 %>%
  filter(Country_Region == "US") %>%
  group_by(Province_State) %>%
  summarize(deaths = sum(Deaths))  %>%
  arrange(desc(deaths))

## `summarise()` ungrouping output (override with `.groups` argument)

state_count4

## # A tibble: 53 x 2
##    Province_State deaths
##    <chr>           <dbl>
##  1 Washington         37
##  2 California          4
##  3 Florida             2
##  4 Georgia             1
##  5 Kansas              1
##  6 New Jersey          1
##  7 South Dakota        1
##  8 Alabama             0
##  9 Alaska              0
## 10 Arizona             0
## #  with 43 more rows
…
9/13 case count

 state_count5 <- report_09_13_2020 %>%
  filter(Country_Region == "US") %>%
  group_by(Province_State) %>%
  summarize(cases = sum(Confirmed))  %>%
  arrange(desc(cases))

## `summarise()` ungrouping output (override with `.groups` argument)

state_count5

## # A tibble: 58 x 2
##    Province_State  cases
##    <chr>           <dbl>
##  1 California     761728
##  2 Texas          681885
##  3 Florida        663994
##  4 New York       444365
##  5 Georgia        294314
##  6 Illinois       263459
##  7 Arizona        208512
##  8 New Jersey     196634
##  9 North Carolina 184936
## 10 Tennessee      171824
## #  with 48 more rows
…
 state_count6 <- report_09_13_2020 %>%
  filter(Country_Region == "US") %>%
  group_by(Province_State) %>%
  summarize(deaths = sum(Deaths))  %>%
  arrange(desc(deaths))

## `summarise()` ungrouping output (override with `.groups` argument)

state_count6

## # A tibble: 58 x 2
##    Province_State deaths
##    <chr>           <dbl>
##  1 New York        33023
##  2 New Jersey      16031
##  3 Texas           14405
##  4 California      14378
##  5 Florida         12608
##  6 Massachusetts    9210
##  7 Illinois         8541
##  8 Pennsylvania     7829
##  9 Michigan         6911
## 10 Georgia          6333
## #  with 48 more rows
…
